tb_sys_picorv32.vcd
$date
	Fri Jun 20 16:36:22 2025
$end
$version
	Icarus Verilog
$end
$timescale
	1ps
$end
$scope module tb_sys_picorv32 $end
$var wire 1 ! tx $end
$var wire 7 " hex5 [6:0] $end
$var wire 7 # hex4 [6:0] $end
$var wire 7 $ hex3 [6:0] $end
$var wire 7 % hex2 [6:0] $end
$var wire 7 & hex1 [6:0] $end
$var wire 7 ' hex0 [6:0] $end
$var wire 8 ( LEDR [7:0] $end
$var reg 8 ) SW [7:0] $end
$var reg 1 * clk $end
$var reg 128 + message_buffer [127:0] $end
$var reg 1 , resetn $end
$var reg 1 - rx $end
$scope module dutsys $end
$var wire 8 . SW [7:0] $end
$var wire 1 - rx $end
$var wire 1 * sys_clk $end
$var wire 1 / sys_read_enable $end
$var wire 1 , sys_resetn $end
$var wire 1 ! tx $end
$var wire 1 0 sys_write_enable $end
$var wire 1 1 sys_UARTSR_read $end
$var wire 1 2 sys_UARTCR_write $end
$var wire 1 3 sys_UARTCR_read $end
$var wire 1 4 sys_TXDATA_write $end
$var wire 1 5 sys_SWITCH_read $end
$var wire 1 6 sys_RXDATA_read $end
$var wire 1 7 sys_RTC_SS_read $end
$var wire 1 8 sys_RTC_MM_read $end
$var wire 1 9 sys_RTC_HH_read $end
$var wire 1 : sys_RTC_HHMMSS_write $end
$var wire 1 ; sys_RAM_write $end
$var wire 1 < sys_RAM_read $end
$var wire 1 = sys_LED_write $end
$var wire 1 > sys_LED_read $end
$var wire 1 ? sys_7SEG_write $end
$var wire 1 @ sys_7SEG_read $end
$var wire 8 A status_register [7:0] $end
$var wire 8 B rx_data [7:0] $end
$var wire 32 C ram_read_data [31:0] $end
$var wire 7 D hex5 [6:0] $end
$var wire 7 E hex4 [6:0] $end
$var wire 7 F hex3 [6:0] $end
$var wire 7 G hex2 [6:0] $end
$var wire 7 H hex1 [6:0] $end
$var wire 7 I hex0 [6:0] $end
$var wire 1 J global_rw $end
$var wire 4 K cpu_write_strobe [3:0] $end
$var wire 32 L cpu_write_data [31:0] $end
$var wire 1 M cpu_trap $end
$var wire 1 N cpu_rw_cycle $end
$var wire 32 O cpu_read_data [31:0] $end
$var wire 1 P cpu_instr_fetch $end
$var wire 32 Q cpu_address [31:0] $end
$var wire 8 R RTC_SS [7:0] $end
$var wire 8 S RTC_MM [7:0] $end
$var wire 8 T RTC_HH [7:0] $end
$var reg 24 U HexData [23:0] $end
$var reg 8 V LEDR [7:0] $end
$var reg 32 W RTC_HHMMSS [31:0] $end
$var reg 8 X control_register [7:0] $end
$var reg 32 Y io_read_data [31:0] $end
$var reg 16 Z sys_rw_bus [15:0] $end
$var reg 1 [ sys_rw_is_done $end
$var reg 8 \ tx_data [7:0] $end
$scope module BCDto7seg_0 $end
$var wire 4 ] din [3:0] $end
$var wire 7 ^ abcdef [6:0] $end
$var reg 128 _ rom [127:0] $end
$upscope $end
$scope module BCDto7seg_1 $end
$var wire 4 ` din [3:0] $end
$var wire 7 a abcdef [6:0] $end
$var reg 128 b rom [127:0] $end
$upscope $end
$scope module BCDto7seg_2 $end
$var wire 4 c din [3:0] $end
$var wire 7 d abcdef [6:0] $end
$var reg 128 e rom [127:0] $end
$upscope $end
$scope module BCDto7seg_3 $end
$var wire 4 f din [3:0] $end
$var wire 7 g abcdef [6:0] $end
$var reg 128 h rom [127:0] $end
$upscope $end
$scope module BCDto7seg_4 $end
$var wire 4 i din [3:0] $end
$var wire 7 j abcdef [6:0] $end
$var reg 128 k rom [127:0] $end
$upscope $end
$scope module BCDto7seg_5 $end
$var wire 4 l din [3:0] $end
$var wire 7 m abcdef [6:0] $end
$var reg 128 n rom [127:0] $end
$upscope $end
$scope module RTC1 $end
$var wire 1 * clk $end
$var wire 32 o hhmmss [31:0] $end
$var wire 1 : wr $end
$var reg 26 p counter [25:0] $end
$var reg 8 q hours [7:0] $end
$var reg 8 r minutes [7:0] $end
$var reg 8 s seconds [7:0] $end
$upscope $end
$scope module picorvr32_inst $end
$var wire 1 * clk $end
$var wire 32 t dbg_mem_addr [31:0] $end
$var wire 1 u dbg_mem_instr $end
$var wire 32 v dbg_mem_rdata [31:0] $end
$var wire 1 w dbg_mem_ready $end
$var wire 1 x dbg_mem_valid $end
$var wire 32 y dbg_mem_wdata [31:0] $end
$var wire 4 z dbg_mem_wstrb [3:0] $end
$var wire 1 { instr_trap $end
$var wire 32 | irq [31:0] $end
$var wire 1 } launch_next_insn $end
$var wire 1 ~ mem_done $end
$var wire 1 !" mem_la_firstword $end
$var wire 1 "" mem_la_firstword_xfer $end
$var wire 1 #" mem_la_read $end
$var wire 1 $" mem_la_use_prefetched_high_word $end
$var wire 1 %" mem_la_write $end
$var wire 32 &" mem_rdata [31:0] $end
$var wire 32 '" mem_rdata_latched [31:0] $end
$var wire 1 [ mem_ready $end
$var wire 1 (" mem_xfer $end
$var wire 32 )" pcpi_div_rd [31:0] $end
$var wire 1 *" pcpi_div_ready $end
$var wire 1 +" pcpi_div_wait $end
$var wire 1 ," pcpi_div_wr $end
$var wire 32 -" pcpi_mul_rd [31:0] $end
$var wire 1 ." pcpi_mul_ready $end
$var wire 1 /" pcpi_mul_wait $end
$var wire 1 0" pcpi_mul_wr $end
$var wire 32 1" pcpi_rd [31:0] $end
$var wire 1 2" pcpi_ready $end
$var wire 32 3" pcpi_rs1 [31:0] $end
$var wire 32 4" pcpi_rs2 [31:0] $end
$var wire 1 5" pcpi_wait $end
$var wire 1 6" pcpi_wr $end
$var wire 1 , resetn $end
$var wire 32 7" next_pc [31:0] $end
$var wire 32 8" mem_rdata_latched_noshuffle [31:0] $end
$var wire 32 9" mem_la_addr [31:0] $end
$var wire 1 :" mem_busy $end
$var wire 1 ;" is_rdcycle_rdcycleh_rdinstr_rdinstrh $end
$var parameter 1 <" BARREL_SHIFTER $end
$var parameter 1 =" CATCH_ILLINSN $end
$var parameter 1 >" CATCH_MISALIGN $end
$var parameter 1 ?" COMPRESSED_ISA $end
$var parameter 1 @" ENABLE_COUNTERS $end
$var parameter 1 A" ENABLE_COUNTERS64 $end
$var parameter 1 B" ENABLE_DIV $end
$var parameter 1 C" ENABLE_FAST_MUL $end
$var parameter 1 D" ENABLE_IRQ $end
$var parameter 1 E" ENABLE_IRQ_QREGS $end
$var parameter 1 F" ENABLE_IRQ_TIMER $end
$var parameter 1 G" ENABLE_MUL $end
$var parameter 1 H" ENABLE_PCPI $end
$var parameter 1 I" ENABLE_REGS_16_31 $end
$var parameter 1 J" ENABLE_REGS_DUALPORT $end
$var parameter 1 K" ENABLE_TRACE $end
$var parameter 32 L" LATCHED_IRQ $end
$var parameter 1 M" LATCHED_MEM_RDATA $end
$var parameter 32 N" MASKED_IRQ $end
$var parameter 32 O" PROGADDR_IRQ $end
$var parameter 32 P" PROGADDR_RESET $end
$var parameter 1 Q" REGS_INIT_ZERO $end
$var parameter 32 R" STACKADDR $end
$var parameter 36 S" TRACE_ADDR $end
$var parameter 36 T" TRACE_BRANCH $end
$var parameter 36 U" TRACE_IRQ $end
$var parameter 1 V" TWO_CYCLE_ALU $end
$var parameter 1 W" TWO_CYCLE_COMPARE $end
$var parameter 1 X" TWO_STAGE_SHIFT $end
$var parameter 1 Y" WITH_PCPI $end
$var parameter 8 Z" cpu_state_exec $end
$var parameter 8 [" cpu_state_fetch $end
$var parameter 8 \" cpu_state_ld_rs1 $end
$var parameter 8 ]" cpu_state_ld_rs2 $end
$var parameter 8 ^" cpu_state_ldmem $end
$var parameter 8 _" cpu_state_shift $end
$var parameter 8 `" cpu_state_stmem $end
$var parameter 8 a" cpu_state_trap $end
$var parameter 32 b" irq_buserror $end
$var parameter 32 c" irq_ebreak $end
$var parameter 32 d" irq_timer $end
$var parameter 32 e" irqregs_offset $end
$var parameter 32 f" regfile_size $end
$var parameter 32 g" regindex_bits $end
$var reg 32 h" alu_add_sub [31:0] $end
$var reg 1 i" alu_eq $end
$var reg 1 j" alu_lts $end
$var reg 1 k" alu_ltu $end
$var reg 32 l" alu_out [31:0] $end
$var reg 1 m" alu_out_0 $end
$var reg 1 n" alu_out_0_q $end
$var reg 32 o" alu_out_q [31:0] $end
$var reg 32 p" alu_shl [31:0] $end
$var reg 32 q" alu_shr [31:0] $end
$var reg 1 r" alu_wait $end
$var reg 1 s" alu_wait_2 $end
$var reg 64 t" cached_ascii_instr [63:0] $end
$var reg 32 u" cached_insn_imm [31:0] $end
$var reg 32 v" cached_insn_opcode [31:0] $end
$var reg 5 w" cached_insn_rd [4:0] $end
$var reg 5 x" cached_insn_rs1 [4:0] $end
$var reg 5 y" cached_insn_rs2 [4:0] $end
$var reg 1 z" clear_prefetched_high_word $end
$var reg 1 {" clear_prefetched_high_word_q $end
$var reg 1 |" compressed_instr $end
$var reg 64 }" count_cycle [63:0] $end
$var reg 64 ~" count_instr [63:0] $end
$var reg 8 !# cpu_state [7:0] $end
$var reg 32 "# cpuregs_rs1 [31:0] $end
$var reg 32 ## cpuregs_rs2 [31:0] $end
$var reg 32 $# cpuregs_wrdata [31:0] $end
$var reg 1 %# cpuregs_write $end
$var reg 32 &# current_pc [31:0] $end
$var reg 64 '# dbg_ascii_instr [63:0] $end
$var reg 128 (# dbg_ascii_state [127:0] $end
$var reg 32 )# dbg_insn_addr [31:0] $end
$var reg 32 *# dbg_insn_imm [31:0] $end
$var reg 32 +# dbg_insn_opcode [31:0] $end
$var reg 5 ,# dbg_insn_rd [4:0] $end
$var reg 5 -# dbg_insn_rs1 [4:0] $end
$var reg 5 .# dbg_insn_rs2 [4:0] $end
$var reg 1 /# dbg_next $end
$var reg 32 0# dbg_rs1val [31:0] $end
$var reg 1 1# dbg_rs1val_valid $end
$var reg 32 2# dbg_rs2val [31:0] $end
$var reg 1 3# dbg_rs2val_valid $end
$var reg 1 4# dbg_valid_insn $end
$var reg 32 5# decoded_imm [31:0] $end
$var reg 32 6# decoded_imm_j [31:0] $end
$var reg 5 7# decoded_rd [4:0] $end
$var reg 5 8# decoded_rs [4:0] $end
$var reg 5 9# decoded_rs1 [4:0] $end
$var reg 5 :# decoded_rs2 [4:0] $end
$var reg 1 ;# decoder_pseudo_trigger $end
$var reg 1 <# decoder_pseudo_trigger_q $end
$var reg 1 =# decoder_trigger $end
$var reg 1 ># decoder_trigger_q $end
$var reg 1 ?# do_waitirq $end
$var reg 32 @# eoi [31:0] $end
$var reg 1 A# instr_add $end
$var reg 1 B# instr_addi $end
$var reg 1 C# instr_and $end
$var reg 1 D# instr_andi $end
$var reg 1 E# instr_auipc $end
$var reg 1 F# instr_beq $end
$var reg 1 G# instr_bge $end
$var reg 1 H# instr_bgeu $end
$var reg 1 I# instr_blt $end
$var reg 1 J# instr_bltu $end
$var reg 1 K# instr_bne $end
$var reg 1 L# instr_ecall_ebreak $end
$var reg 1 M# instr_fence $end
$var reg 1 N# instr_getq $end
$var reg 1 O# instr_jal $end
$var reg 1 P# instr_jalr $end
$var reg 1 Q# instr_lb $end
$var reg 1 R# instr_lbu $end
$var reg 1 S# instr_lh $end
$var reg 1 T# instr_lhu $end
$var reg 1 U# instr_lui $end
$var reg 1 V# instr_lw $end
$var reg 1 W# instr_maskirq $end
$var reg 1 X# instr_or $end
$var reg 1 Y# instr_ori $end
$var reg 1 Z# instr_rdcycle $end
$var reg 1 [# instr_rdcycleh $end
$var reg 1 \# instr_rdinstr $end
$var reg 1 ]# instr_rdinstrh $end
$var reg 1 ^# instr_retirq $end
$var reg 1 _# instr_sb $end
$var reg 1 `# instr_setq $end
$var reg 1 a# instr_sh $end
$var reg 1 b# instr_sll $end
$var reg 1 c# instr_slli $end
$var reg 1 d# instr_slt $end
$var reg 1 e# instr_slti $end
$var reg 1 f# instr_sltiu $end
$var reg 1 g# instr_sltu $end
$var reg 1 h# instr_sra $end
$var reg 1 i# instr_srai $end
$var reg 1 j# instr_srl $end
$var reg 1 k# instr_srli $end
$var reg 1 l# instr_sub $end
$var reg 1 m# instr_sw $end
$var reg 1 n# instr_timer $end
$var reg 1 o# instr_waitirq $end
$var reg 1 p# instr_xor $end
$var reg 1 q# instr_xori $end
$var reg 1 r# irq_active $end
$var reg 1 s# irq_delay $end
$var reg 32 t# irq_mask [31:0] $end
$var reg 32 u# irq_pending [31:0] $end
$var reg 2 v# irq_state [1:0] $end
$var reg 1 w# is_alu_reg_imm $end
$var reg 1 x# is_alu_reg_reg $end
$var reg 1 y# is_beq_bne_blt_bge_bltu_bgeu $end
$var reg 1 z# is_compare $end
$var reg 1 {# is_jalr_addi_slti_sltiu_xori_ori_andi $end
$var reg 1 |# is_lb_lh_lw_lbu_lhu $end
$var reg 1 }# is_lbu_lhu_lw $end
$var reg 1 ~# is_lui_auipc_jal $end
$var reg 1 !$ is_lui_auipc_jal_jalr_addi_add_sub $end
$var reg 1 "$ is_sb_sh_sw $end
$var reg 1 #$ is_sll_srl_sra $end
$var reg 1 $$ is_slli_srli_srai $end
$var reg 1 %$ is_slti_blt_slt $end
$var reg 1 &$ is_sltiu_bltu_sltu $end
$var reg 1 '$ last_mem_valid $end
$var reg 1 ($ latched_branch $end
$var reg 1 )$ latched_compr $end
$var reg 1 *$ latched_is_lb $end
$var reg 1 +$ latched_is_lh $end
$var reg 1 ,$ latched_is_lu $end
$var reg 5 -$ latched_rd [4:0] $end
$var reg 1 .$ latched_stalu $end
$var reg 1 /$ latched_store $end
$var reg 1 0$ latched_trace $end
$var reg 32 1$ mem_addr [31:0] $end
$var reg 1 2$ mem_do_prefetch $end
$var reg 1 3$ mem_do_rdata $end
$var reg 1 4$ mem_do_rinst $end
$var reg 1 5$ mem_do_wdata $end
$var reg 1 P mem_instr $end
$var reg 1 6$ mem_la_firstword_reg $end
$var reg 1 7$ mem_la_secondword $end
$var reg 32 8$ mem_la_wdata [31:0] $end
$var reg 4 9$ mem_la_wstrb [3:0] $end
$var reg 32 :$ mem_rdata_q [31:0] $end
$var reg 32 ;$ mem_rdata_word [31:0] $end
$var reg 2 <$ mem_state [1:0] $end
$var reg 1 N mem_valid $end
$var reg 32 =$ mem_wdata [31:0] $end
$var reg 2 >$ mem_wordsize [1:0] $end
$var reg 4 ?$ mem_wstrb [3:0] $end
$var reg 64 @$ new_ascii_instr [63:0] $end
$var reg 32 A$ next_insn_opcode [31:0] $end
$var reg 32 B$ next_irq_pending [31:0] $end
$var reg 32 C$ pcpi_insn [31:0] $end
$var reg 32 D$ pcpi_int_rd [31:0] $end
$var reg 1 E$ pcpi_int_ready $end
$var reg 1 F$ pcpi_int_wait $end
$var reg 1 G$ pcpi_int_wr $end
$var reg 1 H$ pcpi_timeout $end
$var reg 1 I$ pcpi_valid $end
$var reg 1 J$ prefetched_high_word $end
$var reg 64 K$ q_ascii_instr [63:0] $end
$var reg 32 L$ q_insn_imm [31:0] $end
$var reg 32 M$ q_insn_opcode [31:0] $end
$var reg 5 N$ q_insn_rd [4:0] $end
$var reg 5 O$ q_insn_rs1 [4:0] $end
$var reg 5 P$ q_insn_rs2 [4:0] $end
$var reg 32 Q$ reg_next_pc [31:0] $end
$var reg 32 R$ reg_op1 [31:0] $end
$var reg 32 S$ reg_op2 [31:0] $end
$var reg 32 T$ reg_out [31:0] $end
$var reg 32 U$ reg_pc [31:0] $end
$var reg 5 V$ reg_sh [4:0] $end
$var reg 1 W$ set_mem_do_rdata $end
$var reg 1 X$ set_mem_do_rinst $end
$var reg 1 Y$ set_mem_do_wdata $end
$var reg 32 Z$ timer [31:0] $end
$var reg 36 [$ trace_data [35:0] $end
$var reg 1 \$ trace_valid $end
$var reg 1 M trap $end
$scope begin genblk1 $end
$upscope $end
$scope begin genblk2 $end
$upscope $end
$scope begin genblk3 $end
$upscope $end
$scope task empty_statement $end
$upscope $end
$upscope $end
$scope module ram1port8k_inst $end
$var wire 11 ]$ address [10:0] $end
$var wire 4 ^$ byteena [3:0] $end
$var wire 1 * clock $end
$var wire 32 _$ data [31:0] $end
$var wire 1 < rden $end
$var wire 1 ; wren $end
$var wire 4 `$ wstrb [3:0] $end
$var reg 32 a$ q [31:0] $end
$upscope $end
$scope module uart1 $end
$var wire 1 * clock $end
$var wire 8 b$ control_register [7:0] $end
$var wire 1 6 read_last_rx_data $end
$var wire 1 , reset_n $end
$var wire 1 - rx $end
$var wire 8 c$ tx_data [7:0] $end
$var wire 1 4 write_new_tx_data $end
$var wire 1 d$ tx_enable $end
$var wire 1 ! tx $end
$var wire 1 e$ tbit_clock_enable $end
$var wire 8 f$ status_register [7:0] $end
$var wire 1 g$ rx_enable $end
$var wire 1 h$ rx_Tbit_clock_enable $end
$var parameter 32 i$ BAUDRATE $end
$var parameter 32 j$ BAUDRATEDIVIDER $end
$var parameter 32 k$ CLOCK_FREQUENCY $end
$var parameter 3 l$ TX_IDLE_STATE $end
$var parameter 3 m$ TX_LOAD_STATE $end
$var parameter 3 n$ TX_SHIFT_STATE $end
$var reg 16 o$ baudrate_prescaler [15:0] $end
$var reg 16 p$ rx_baud_prescaler [15:0] $end
$var reg 4 q$ rx_bitcount [3:0] $end
$var reg 1 r$ rx_busy $end
$var reg 8 s$ rx_data [7:0] $end
$var reg 1 t$ rx_full $end
$var reg 10 u$ rx_shift_register [9:0] $end
$var reg 4 v$ tx_bitcount [3:0] $end
$var reg 1 w$ tx_busy $end
$var reg 10 x$ tx_shift_register [9:0] $end
$var reg 2 y$ tx_state [1:0] $end
$upscope $end
$upscope $end
$upscope $end
$enddefinitions $end
$comment Show the parameter values. $end
$dumpall
b11 n$
b1 m$
b0 l$
b10111110101111000010000000 k$
b1010001011000 j$
b10010110000000 i$
b101 g"
b100000 f"
b100000 e"
b0 d"
b1 c"
b10 b"
b10000000 a"
b10 `"
b100 _"
b1 ^"
b10000 ]"
b100000 \"
b1000000 ["
b1000 Z"
0Y"
1X"
0W"
0V"
b100000000000000000000000000000000000 U"
b100000000000000000000000000000000 T"
b1000000000000000000000000000000000 S"
b11111111111111111111111111111111 R"
0Q"
b0 P"
b10000 O"
b0 N"
0M"
b11111111111111111111111111111111 L"
0K"
1J"
1I"
0H"
0G"
1F"
1E"
0D"
0C"
0B"
1A"
1@"
0?"
1>"
1="
0<"
$end
#0
$dumpvars
b0 y$
b1111111111 x$
0w$
b0 v$
b0 u$
0t$
bx s$
0r$
b0 q$
bx p$
bx o$
xh$
xg$
b0 f$
xe$
xd$
bx c$
bx b$
bx a$
bx `$
bx _$
bx ^$
bx ]$
0\$
bx [$
b0 Z$
0Y$
0X$
0W$
bx V$
b0 U$
bx T$
bx S$
bx R$
b0 Q$
bx P$
bx O$
bx N$
bx M$
bx L$
bx K$
0J$
0I$
0H$
0G$
0F$
0E$
bx D$
bx C$
b0 B$
bx A$
b0 @$
bx ?$
bx >$
bx =$
b0 <$
bx ;$
bx :$
bx 9$
bx 8$
07$
06$
05$
04$
03$
02$
bx 1$
00$
0/$
0.$
bx -$
0,$
0+$
0*$
x)$
0($
0'$
x&$
x%$
x$$
x#$
x"$
x!$
x~#
x}#
x|#
x{#
0z#
0y#
xx#
xw#
b0 v#
b0 u#
b11111111111111111111111111111111 t#
0s#
0r#
0q#
0p#
xo#
xn#
xm#
0l#
xk#
0j#
xi#
0h#
0g#
0f#
0e#
0d#
xc#
0b#
xa#
x`#
x_#
x^#
x]#
x\#
x[#
xZ#
0Y#
0X#
xW#
xV#
xU#
xT#
xS#
xR#
xQ#
xP#
xO#
xN#
0M#
xL#
0K#
0J#
0I#
0H#
0G#
0F#
xE#
0D#
0C#
0B#
0A#
b0 @#
0?#
x>#
0=#
x<#
0;#
bx :#
bx 9#
bx 8#
bx 7#
bx 6#
bx 5#
04#
x3#
bx 2#
x1#
bx 0#
x/#
bx .#
bx -#
bx ,#
bx +#
bx *#
bx )#
b110011001100101011101000110001101101000 (#
bx '#
bx &#
0%#
bx $#
bx ##
bx "#
b1000000 !#
b0 ~"
b0 }"
x|"
x{"
0z"
bx y"
bx x"
bx w"
bx v"
bx u"
bx t"
0s"
0r"
bx q"
bx p"
bx o"
xn"
xm"
bx l"
xk"
xj"
xi"
bx h"
x;"
0:"
bx00 9"
bx 8"
b0 7"
z6"
z5"
bx 4"
bx 3"
z2"
bz 1"
00"
0/"
0."
bx -"
0,"
0+"
0*"
bx )"
0("
bx '"
bx &"
0%"
0$"
0#"
0""
0!"
0~
0}
bz |
x{
bx z
bx y
0x
xw
bx v
xu
bx t
bx s
bx r
bx q
bx p
bx o
b111111000001100101101101001111011001100110110101111101000001110111111101101111011101110111110000111001010111100111100101110001 n
bx m
bx l
b111111000001100101101101001111011001100110110101111101000001110111111101101111011101110111110000111001010111100111100101110001 k
bx j
bx i
b111111000001100101101101001111011001100110110101111101000001110111111101101111011101110111110000111001010111100111100101110001 h
bx g
bx f
b111111000001100101101101001111011001100110110101111101000001110111111101101111011101110111110000111001010111100111100101110001 e
bx d
bx c
b111111000001100101101101001111011001100110110101111101000001110111111101101111011101110111110000111001010111100111100101110001 b
bx a
bx `
b111111000001100101101101001111011001100110110101111101000001110111111101101111011101110111110000111001010111100111100101110001 _
bx ^
bx ]
bx \
x[
b1000 Z
bx Y
bx X
bx W
bx V
bx U
bx T
bx S
bx R
bx Q
xP
bx O
0N
0M
bx L
bx K
1J
bx I
bx H
bx G
bx F
bx E
bx D
bx C
bx B
b0 A
0@
0?
0>
0=
0<
1;
0:
09
08
07
06
05
04
03
02
01
x0
0/
b0 .
1-
1,
b1001000011001010110110001101100011011110010110000100000010101110110111101110010011011000110010000100001001000000010000000100000 +
1*
b0 )
bx (
bx '
bx &
bx %
bx $
bx #
bx "
1!
$end
#10000
0*
#20000
1#"
b0 9"
b1111 9$
bx u#
b0 >$
1:"
14$
0<#
0>#
b1 }"
0{"
0&$
0%$
0/#
bx &#
bx B$
1*
#30000
0*
#40000
1<
0;
1J
b100 Z
x("
b0 `$
1/
b0 ]$
0#"
b1 <$
1u
1P
1x
1N
b0 z
00
b0 K
b0 ?$
b0 ^$
b0 t
b0 Q
b0 1$
b10 }"
0,
bx &#
1*
#50000
0*
#60000
0<
0J
b0 Z
bx ;$
bx00 9"
0("
bx v
bx O
bx &"
0/
b10000100010111 C
b10000100010111 a$
b0 u#
0:"
04$
b0 }"
0x
0N
b0 <$
b0 B$
1*
#70000
0*
#80000
0w
0[
1,
b0 B$
1*
#90000
0*
#100000
1#"
b0 9"
bx u#
1:"
14$
b1 }"
bx &#
bx B$
1*
#110000
0*
#120000
b10000100010111 ;$
b10000100010111 v
b10000100010111 O
b10000100010111 &"
1<
1J
b100 Z
0#"
1/
b1 <$
1x
1N
b10 }"
bx &#
1*
#130000
0*
#140000
1~
b10000100010111 '"
b10000100010111 8"
1("
1w
1[
b11 }"
1'$
bx &#
1*
#150000
0*
#160000
bx ;$
bx v
bx O
bx &"
0<
0J
b0 Z
0~
bx00 9"
1}
0("
0/
b0 ##
b0 "#
0{
b110000101110101011010010111000001100011 @$
b0 <$
0x
0N
0'$
b10000100010111 A$
b10000100010111 :$
0|"
b0 :#
b0 9#
b10 7#
b10000000000000 6#
0x#
0w#
0"$
0|#
0o#
0^#
0P#
0O#
1E#
0U#
0:"
04$
1=#
b100 }"
0w
0[
bx &#
1*
#170000
0*
#180000
1#"
b100 9"
0}
b11011000110010001011111011100100111001100110001 (#
b100 7"
b110000101110101011010010111000001100011 @$
b10 ,#
b0 .#
b0 -#
b10000000000000 *#
b10000100010111 +#
b110000101110101011010010111000001100011 '#
b100000 !#
1:"
12$
b1 ~"
b100 Q$
0)$
b10 -$
1>#
0=#
b101 }"
03#
01#
b10000000000000 5#
0#$
0{#
0$$
0n#
0W#
0`#
0N#
0L#
0;"
0]#
0\#
0[#
0Z#
0i#
0k#
0c#
0m#
0a#
0_#
0T#
0R#
0V#
0S#
0Q#
0!$
1~#
b0 )#
14#
1/#
bx &#
1*
#190000
0*
#200000
b10000100010111 ;$
b10000100010111 v
b10000100010111 O
b10000100010111 &"
1<
1J
b100 Z
0#"
1/
b1 ]$
b1100101011110000110010101100011 (#
b10000000000000 l"
b10000000000000 8$
b0 q"
b0 p"
1k"
1j"
0i"
b10000000000000 h"
b1 <$
1x
1N
b100 t
b100 Q
b100 1$
b10 w"
b0 y"
b0 x"
b10000100010111 v"
b10000000000000 u"
b110000101110101011010010111000001100011 t"
0/#
b10 N$
b0 P$
b0 O$
b10000100010111 M$
b10000000000000 L$
b110000101110101011010010111000001100011 K$
0}#
1!$
b1000 !#
14$
b10000000000000 4"
b10000000000000 S$
b0 3"
b0 R$
0>#
b110 }"
1*
#210000
0*
#220000
1~
b11111111110000010000000100010011 '"
b11111111110000010000000100010011 8"
1("
b11111111110000010000000100010011 ;$
b11111111110000010000000100010011 v
b11111111110000010000000100010011 O
b11111111110000010000000100010011 &"
b110011001100101011101000110001101101000 (#
1%#
b10000000000000 $#
1w
1[
b11111111110000010000000100010011 C
b11111111110000010000000100010011 a$
b1000000 !#
1.$
1/$
b10000000000000 T$
b111 }"
b10000000000000 o"
1'$
1*
#230000
0*
#240000
bx ;$
bx v
bx O
bx &"
0<
0J
b0 Z
0~
b0 9"
1}
0("
0/
b0 @$
1{
bx ##
b10000000000000 "#
bx $#
0%#
b0 <$
0x
0N
0'$
b11111111110000010000000100010011 A$
b11111111110000010000000100010011 :$
b11100 :#
b10 9#
b11111111111100010000011111111100 6#
1w#
0E#
0:"
04$
02$
0.$
0/$
b100 U$
1=#
b1000 }"
bx T$
0w
0[
bx &#
1*
#250000
0*
#260000
1#"
b1000 9"
0}
b11011000110010001011111011100100111001100110001 (#
b1000 7"
b1100001011001000110010001101001 @$
0{
bx l"
b11100 .#
b10 -#
b11111111111111111111111111111100 *#
b11111111110000010000000100010011 +#
b1100001011001000110010001101001 '#
b100000 !#
1:"
12$
b10 ~"
b1000 Q$
1>#
0=#
b1001 }"
b11111111111111111111111111111100 5#
1{#
1B#
0!$
0~#
b100 )#
1/#
bx &#
1*
#270000
0*
#280000
b11111111110000010000000100010011 ;$
b11111111110000010000000100010011 v
b11111111110000010000000100010011 O
b11111111110000010000000100010011 &"
1<
1J
b100 Z
0#"
1/
b10 ]$
b1100101011110000110010101100011 (#
b1111111111100 l"
b11111111111111111111111111111100 8$
0j"
b1111111111100 h"
b1 <$
1x
1N
b1000 t
b1000 Q
b1000 1$
b11100 y"
b10 x"
b11111111110000010000000100010011 v"
b11111111111111111111111111111100 u"
b1100001011001000110010001101001 t"
0/#
b11100 P$
b10 O$
b11111111110000010000000100010011 M$
b11111111111111111111111111111100 L$
b1100001011001000110010001101001 K$
1!$
b1000 !#
14$
11#
b10000000000000 0#
b11111111111111111111111111111100 4"
b11111111111111111111111111111100 S$
b10000000000000 3"
b10000000000000 R$
0>#
b1010 }"
bx o"
1*
#290000
0*
#300000
1~
b110000110000000000000001101111 '"
b110000110000000000000001101111 8"
1("
b110000110000000000000001101111 ;$
b110000110000000000000001101111 v
b110000110000000000000001101111 O
b110000110000000000000001101111 &"
b110011001100101011101000110001101101000 (#
1%#
b1111111111100 $#
1w
1[
b110000110000000000000001101111 C
b110000110000000000000001101111 a$
b1000000 !#
1.$
1/$
b0 T$
b1011 }"
b1111111111100 o"
1'$
1*
#310000
0*
#320000
bx ;$
bx v
bx O
bx &"
0<
0J
b0 Z
0~
b10000000000000 9"
1}
0("
0/
b1100001011001000110010001101001 @$
b0 "#
bx $#
0%#
b0 <$
0x
0N
0'$
b110000110000000000000001101111 A$
b110000110000000000000001101111 :$
b1100 :#
b0 9#
b0 7#
b1100001100 6#
0w#
1O#
0:"
04$
02$
0.$
0/$
b1000 U$
1=#
b1100 }"
bx T$
0w
0[
bx &#
1*
#330000
0*
#340000
1#"
b1100010100 9"
0}
b11010100110000101101100 '#
1%#
b1100 $#
b1100010100 7"
bx l"
b11010100110000101101100 @$
b0 ,#
b1100 .#
b0 -#
b1100001100 *#
b110000110000000000000001101111 +#
1($
1:"
14$
b11 ~"
b1100010100 Q$
b0 -$
1>#
0=#
b1101 }"
01#
bx 0#
b1100001100 5#
0!$
0{#
0B#
1~#
b1000 )#
1/#
bx &#
1*
#350000
0*
#360000
b110000110000000000000001101111 ;$
b110000110000000000000001101111 v
b110000110000000000000001101111 O
b110000110000000000000001101111 &"
1<
1J
b100 Z
0#"
1/
b11000101 ]$
b1111111111100 l"
bx $#
0%#
b1 <$
1x
1N
b1100010100 t
b1100010100 Q
b1100010100 1$
b0 w"
b1100 y"
b0 x"
b110000110000000000000001101111 v"
b1100001100 u"
b11010100110000101101100 t"
0/#
b0 N$
b1100 P$
b0 O$
b110000110000000000000001101111 M$
b1100001100 L$
b11010100110000101101100 K$
1!$
0($
b1100010100 U$
0>#
b1110 }"
bx o"
bx &#
1*
#370000
0*
#380000
1~
b11110111000000010000000100010011 '"
b11110111000000010000000100010011 8"
1("
b11110111000000010000000100010011 ;$
b11110111000000010000000100010011 v
b11110111000000010000000100010011 O
b11110111000000010000000100010011 &"
1w
1[
b11110111000000010000000100010011 C
b11110111000000010000000100010011 a$
b1111 }"
b1111111111100 o"
1'$
bx &#
1*
#390000
0*
#400000
bx ;$
bx v
bx O
bx &"
0<
0J
b0 Z
0~
b10000000000000 9"
1}
0("
0/
b1111111111100 "#
b0 @$
1{
b0 <$
0x
0N
0'$
b11110111000000010000000100010011 A$
b11110111000000010000000100010011 :$
b10000 :#
b10 9#
b10 7#
b11111111111100010000011101110000 6#
1w#
0O#
0:"
04$
1=#
b10000 }"
0w
0[
bx &#
1*
#410000
0*
